<?xml version="1.0" encoding="UTF-8"?>
<svg width="20px" height="20px" viewBox="0 0 20 20" version="1.1" xmlns="http://www.w3.org/2000/svg" xmlns:xlink="http://www.w3.org/1999/xlink">
    <!-- Generator: Sketch 63.1 (92452) - https://sketch.com -->
    <title>icon/20/dakr/arrow--right</title>
    <desc>Created with Sketch.</desc>
    <g id="icon/20/dakr/arrow--right" stroke="none" stroke-width="1" fill="none" fill-rule="evenodd" stroke-linecap="round" stroke-linejoin="round">
        <g id="element/icon/20/light/arrow--right" transform="translate(4.000000, 0.000000)" stroke="#00151D">
            <polyline id="Path-2" points="1 1 11 9.99306043 1 19"></polyline>
        </g>
    </g>
</svg>