<?xml version="1.0" encoding="UTF-8"?>
<svg width="715px" height="413px" viewBox="0 0 715 413" version="1.1" xmlns="http://www.w3.org/2000/svg" xmlns:xlink="http://www.w3.org/1999/xlink">
    <!-- Generator: Sketch 63.1 (92452) - https://sketch.com -->
    <title>BG_about-history</title>
    <desc>Created with Sketch.</desc>
    <g id="8_關於我們" stroke="none" stroke-width="1" fill="none" fill-rule="evenodd">
        <g transform="translate(-651.000000, -2052.000000)" fill="#00151D" fill-rule="nonzero" id="大事記">
            <g transform="translate(0.000000, 2052.000000)">
                <rect id="BG_about-history" x="651" y="0" width="715" height="413"></rect>
            </g>
        </g>
    </g>
</svg>